{
  "name": "Command Template BP UC3 - Loop Command Variables flow",
  "tasks": {
    "9009": {
      "name": "RunCommandTemplate",
      "canvasName": "RunCommandTemplate",
      "summary": "Compare Memory against every input",
      "description": "Run a Command Template against devices.",
      "location": "Application",
      "locationType": null,
      "app": "MOP",
      "displayName": "MOP",
      "type": "automatic",
      "variables": {
        "incoming": {
          "template": "Command Template BP - Check Memory Dynamic",
          "variables": "$var.254f.merged_object",
          "devices": "$var.job.device"
        },
        "outgoing": {
          "mop_template_results": null
        },
        "translations": [],
        "error": ""
      },
      "deprecated": false,
      "matched": [
        {
          "key": "canvasName",
          "highlightString": "<span class='highlight-string'>RunC</span>ommandTemplate"
        }
      ],
      "groups": [],
      "actor": "Pronghorn",
      "x": 0.211333333333333,
      "y": -0.0587412587412587,
      "scheduled": false
    },
    "workflow_start": {
      "name": "workflow_start",
      "groups": [],
      "x": -0.0413943355119826,
      "y": 0.456834532374101
    },
    "workflow_end": {
      "name": "workflow_end",
      "groups": [],
      "x": 0.480392156862745,
      "y": 0.449640287769784
    },
    "254f": {
      "name": "merge",
      "canvasName": "merge",
      "summary": "Merge Data",
      "description": "Merge data into a single object",
      "location": "Application",
      "locationType": null,
      "app": "WorkFlowEngine",
      "displayName": "WorkFlowEngine",
      "type": "operation",
      "variables": {
        "incoming": {
          "data_to_merge": [
            {
              "key": "memory_percentage",
              "value": {
                "task": "9b8e",
                "variable": "current_item"
              }
            }
          ]
        },
        "outgoing": {
          "merged_object": null
        }
      },
      "deprecated": false,
      "matched": [
        {
          "key": "canvasName",
          "highlightString": "<span class='highlight-string'>merg</span>e"
        },
        {
          "key": "summary",
          "highlightString": "<span class='highlight-string'>Merg</span>e Data"
        },
        {
          "key": "description",
          "highlightString": "<span class='highlight-string'>Merg</span>e data into a single object"
        }
      ],
      "groups": [],
      "x": 0.217333333333333,
      "y": 0.187412587412587
    },
    "9b8e": {
      "name": "forEach",
      "canvasName": "forEach",
      "summary": "Run over every item in the list",
      "description": "Iterate over each item in an array",
      "location": "Application",
      "locationType": null,
      "app": "WorkFlowEngine",
      "displayName": "WorkFlowEngine",
      "type": "operation",
      "variables": {
        "incoming": {
          "data_array": "$var.job.number_array"
        },
        "outgoing": {
          "current_item": null
        },
        "translations": [],
        "error": ""
      },
      "deprecated": false,
      "matched": [
        {
          "key": "summary",
          "highlightString": "For Each <span class='highlight-string'>Loop</span>"
        }
      ],
      "groups": [],
      "x": 0.221132897603486,
      "y": 0.446043165467626,
      "scheduled": false
    }
  },
  "transitions": {
    "5605": {},
    "9009": {},
    "workflow_start": {
      "9b8e": {
        "type": "standard",
        "state": "success"
      }
    },
    "workflow_end": {},
    "b7dc": {},
    "2cc6": {},
    "f3c6": {},
    "a7d2": {},
    "b0c2": {},
    "254f": {
      "9009": {
        "type": "standard",
        "state": "success"
      }
    },
    "9b8e": {
      "254f": {
        "type": "standard",
        "state": "loop"
      },
      "workflow_end": {
        "type": "standard",
        "state": "success"
      }
    },
    "4e35": {}
  },
  "font_size": 12,
  "created": "2020-02-11T00:02:53.055Z",
  "created_by": {
    "provenance": "Local AAA",
    "username": "admin@pronghorn",
    "firstname": "admin",
    "inactive": false,
    "email": ""
  },
  "createdVersion": "5.5.9-2019.3.0.0",
  "groups": [],
  "last_updated": "2020-03-02T20:54:44.360Z",
  "last_updated_by": {
    "provenance": "Local AAA",
    "username": "admin@pronghorn",
    "firstname": "admin",
    "inactive": false,
    "email": ""
  },
  "lastUpdatedVersion": "5.5.9-2019.3.0.0",
  "type": "automation",
  "description": null,
  "tags": []
}